digraph NFA {
rankdir = LR
3 [shape = doublecircle]
5 [shape = doublecircle]
21 [shape = doublecircle]
38 [shape = doublecircle]
46 [shape = doublecircle]
55 [shape = doublecircle]
64 [shape = doublecircle]
74 [shape = doublecircle]
84 [shape = doublecircle]
95 [shape = doublecircle]
101 [shape = doublecircle]
108 [shape = doublecircle]
110 [shape = doublecircle]
112 [shape = doublecircle]
114 [shape = doublecircle]
116 [shape = doublecircle]
118 [shape = doublecircle]
125 [shape = doublecircle]
169 [shape = doublecircle]
174 [shape = doublecircle]
176 [shape = doublecircle]
181 [shape = doublecircle]
187 [shape = doublecircle]
195 [shape = doublecircle]
204 [shape = doublecircle]
216 [shape = doublecircle]
224 [shape = doublecircle]
229 [shape = doublecircle]
236 [shape = doublecircle]
242 [shape = doublecircle]
248 [shape = doublecircle]
253 [shape = doublecircle]
262 [shape = doublecircle]
264 [shape = doublecircle]
0 -> 2 [style=dotted]
0 -> 4 [style=dotted]
0 -> 6 [style=dotted]
0 -> 22 [style=dotted]
0 -> 39 [style=dotted]
0 -> 47 [style=dotted]
0 -> 56 [style=dotted]
0 -> 65 [style=dotted]
0 -> 75 [style=dotted]
0 -> 85 [style=dotted]
0 -> 96 [style=dotted]
0 -> 102 [style=dotted]
0 -> 109 [style=dotted]
0 -> 111 [style=dotted]
0 -> 113 [style=dotted]
0 -> 115 [style=dotted]
0 -> 117 [style=dotted]
0 -> 119 [style=dotted]
0 -> 126 [style=dotted]
0 -> 170 [style=dotted]
0 -> 175 [style=dotted]
0 -> 177 [style=dotted]
0 -> 182 [style=dotted]
0 -> 188 [style=dotted]
0 -> 196 [style=dotted]
0 -> 205 [style=dotted]
0 -> 217 [style=dotted]
0 -> 225 [style=dotted]
0 -> 230 [style=dotted]
0 -> 237 [style=dotted]
0 -> 243 [style=dotted]
0 -> 249 [style=dotted]
0 -> 254 [style=dotted]
0 -> 263 [style=dotted]
1 -> 2 [style=dotted]
1 -> 4 [style=dotted]
1 -> 6 [style=dotted]
1 -> 22 [style=dotted]
1 -> 39 [style=dotted]
1 -> 47 [style=dotted]
1 -> 56 [style=dotted]
1 -> 65 [style=dotted]
1 -> 75 [style=dotted]
1 -> 85 [style=dotted]
1 -> 96 [style=dotted]
1 -> 102 [style=dotted]
1 -> 109 [style=dotted]
1 -> 111 [style=dotted]
1 -> 113 [style=dotted]
1 -> 115 [style=dotted]
1 -> 117 [style=dotted]
1 -> 119 [style=dotted]
1 -> 126 [style=dotted]
1 -> 170 [style=dotted]
1 -> 175 [style=dotted]
1 -> 177 [style=dotted]
1 -> 182 [style=dotted]
1 -> 188 [style=dotted]
1 -> 196 [style=dotted]
1 -> 205 [style=dotted]
1 -> 217 [style=dotted]
1 -> 225 [style=dotted]
1 -> 230 [style=dotted]
1 -> 237 [style=dotted]
1 -> 243 [style=dotted]
1 -> 249 [style=dotted]
1 -> 254 [style=dotted]
1 -> 263 [style=dotted]
2 -> 3 [label="{ [' '] }"]
2 -> 3 [label="{ [9] }"]
4 -> 5 [label="{ [10] }"]
6 -> 7 [label="{ ['<'] }"]
7 -> 8 [label="{ ['C']['c'] }"]
8 -> 9 [label="{ ['O']['o'] }"]
9 -> 10 [label="{ ['N']['n'] }"]
10 -> 11 [label="{ ['F']['f'] }"]
11 -> 12 [label="{ [304-305] }"]
11 -> 12 [label="{ ['I']['i'] }"]
12 -> 13 [label="{ ['G']['g'] }"]
13 -> 14 [label="{ ['U']['u'] }"]
14 -> 15 [label="{ ['R']['r'] }"]
15 -> 16 [label="{ ['A']['a'] }"]
16 -> 17 [label="{ ['T']['t'] }"]
17 -> 18 [label="{ [304-305] }"]
17 -> 18 [label="{ ['I']['i'] }"]
18 -> 19 [label="{ ['O']['o'] }"]
19 -> 20 [label="{ ['N']['n'] }"]
20 -> 21 [label="{ ['>'] }"]
22 -> 23 [label="{ ['<'] }"]
23 -> 24 [label="{ ['/'] }"]
24 -> 25 [label="{ ['C']['c'] }"]
25 -> 26 [label="{ ['O']['o'] }"]
26 -> 27 [label="{ ['N']['n'] }"]
27 -> 28 [label="{ ['F']['f'] }"]
28 -> 29 [label="{ [304-305] }"]
28 -> 29 [label="{ ['I']['i'] }"]
29 -> 30 [label="{ ['G']['g'] }"]
30 -> 31 [label="{ ['U']['u'] }"]
31 -> 32 [label="{ ['R']['r'] }"]
32 -> 33 [label="{ ['A']['a'] }"]
33 -> 34 [label="{ ['T']['t'] }"]
34 -> 35 [label="{ [304-305] }"]
34 -> 35 [label="{ ['I']['i'] }"]
35 -> 36 [label="{ ['O']['o'] }"]
36 -> 37 [label="{ ['N']['n'] }"]
37 -> 38 [label="{ ['>'] }"]
39 -> 40 [label="{ ['<'] }"]
40 -> 41 [label="{ ['F']['f'] }"]
41 -> 42 [label="{ ['O']['o'] }"]
42 -> 43 [label="{ ['N']['n'] }"]
43 -> 44 [label="{ ['D']['d'] }"]
44 -> 45 [label="{ ['O']['o'] }"]
45 -> 46 [label="{ ['>'] }"]
47 -> 48 [label="{ ['<'] }"]
48 -> 49 [label="{ ['/'] }"]
49 -> 50 [label="{ ['F']['f'] }"]
50 -> 51 [label="{ ['O']['o'] }"]
51 -> 52 [label="{ ['N']['n'] }"]
52 -> 53 [label="{ ['D']['d'] }"]
53 -> 54 [label="{ ['O']['o'] }"]
54 -> 55 [label="{ ['>'] }"]
56 -> 57 [label="{ ['<'] }"]
57 -> 58 [label="{ ['F']['f'] }"]
58 -> 59 [label="{ [304-305] }"]
58 -> 59 [label="{ ['I']['i'] }"]
59 -> 60 [label="{ ['G']['g'] }"]
60 -> 61 [label="{ ['U']['u'] }"]
61 -> 62 [label="{ ['R']['r'] }"]
62 -> 63 [label="{ ['A']['a'] }"]
63 -> 64 [label="{ ['>'] }"]
65 -> 66 [label="{ ['<'] }"]
66 -> 67 [label="{ ['/'] }"]
67 -> 68 [label="{ ['F']['f'] }"]
68 -> 69 [label="{ [304-305] }"]
68 -> 69 [label="{ ['I']['i'] }"]
69 -> 70 [label="{ ['G']['g'] }"]
70 -> 71 [label="{ ['U']['u'] }"]
71 -> 72 [label="{ ['R']['r'] }"]
72 -> 73 [label="{ ['A']['a'] }"]
73 -> 74 [label="{ ['>'] }"]
75 -> 76 [label="{ ['<'] }"]
76 -> 77 [label="{ ['D']['d'] }"]
77 -> 78 [label="{ [304-305] }"]
77 -> 78 [label="{ ['I']['i'] }"]
78 -> 79 [label="{ [383] }"]
78 -> 79 [label="{ ['S']['s'] }"]
79 -> 80 [label="{ ['E']['e'] }"]
80 -> 81 [label="{ [195][227] }"]
81 -> 82 [label="{ [177] }"]
82 -> 83 [label="{ ['O']['o'] }"]
83 -> 84 [label="{ ['>'] }"]
85 -> 86 [label="{ ['<'] }"]
86 -> 87 [label="{ ['/'] }"]
87 -> 88 [label="{ ['D']['d'] }"]
88 -> 89 [label="{ [304-305] }"]
88 -> 89 [label="{ ['I']['i'] }"]
89 -> 90 [label="{ [383] }"]
89 -> 90 [label="{ ['S']['s'] }"]
90 -> 91 [label="{ ['E']['e'] }"]
91 -> 92 [label="{ [195][227] }"]
92 -> 93 [label="{ [177] }"]
93 -> 94 [label="{ ['O']['o'] }"]
94 -> 95 [label="{ ['>'] }"]
96 -> 97 [label="{ ['K']['W'-'Z']['k']['w'-'z'] }"]
96 -> 97 [label="{ ['J']['j'] }"]
96 -> 97 [label="{ ['P']['p'] }"]
96 -> 97 [label="{ ['G']['g'] }"]
96 -> 97 [label="{ ['N']['n'] }"]
96 -> 97 [label="{ ['I']['i'] }"]
96 -> 97 [label="{ ['F']['f'] }"]
96 -> 97 [label="{ ['C']['c'] }"]
96 -> 97 [label="{ ['O']['o'] }"]
96 -> 97 [label="{ ['U']['u'] }"]
96 -> 97 [label="{ ['R']['r'] }"]
96 -> 97 [label="{ ['A']['a'] }"]
96 -> 97 [label="{ ['T']['t'] }"]
96 -> 97 [label="{ ['D']['d'] }"]
96 -> 97 [label="{ ['S']['s'] }"]
96 -> 97 [label="{ ['E']['e'] }"]
96 -> 97 [label="{ ['M']['m'] }"]
96 -> 97 [label="{ ['B']['b'] }"]
96 -> 97 [label="{ ['V']['v'] }"]
96 -> 97 [label="{ ['H']['h'] }"]
96 -> 97 [label="{ ['L']['l'] }"]
96 -> 97 [label="{ ['Q']['q'] }"]
97 -> 100 [style=dotted]
98 -> 99 [label="{ ['2'-'9'] }"]
98 -> 99 [label="{ ['K']['W'-'Z']['k']['w'-'z'] }"]
98 -> 99 [label="{ ['0'-'1'] }"]
98 -> 99 [label="{ ['_'] }"]
98 -> 99 [label="{ ['J']['j'] }"]
98 -> 99 [label="{ ['P']['p'] }"]
98 -> 99 [label="{ ['G']['g'] }"]
98 -> 99 [label="{ ['N']['n'] }"]
98 -> 99 [label="{ ['I']['i'] }"]
98 -> 99 [label="{ ['F']['f'] }"]
98 -> 99 [label="{ ['C']['c'] }"]
98 -> 99 [label="{ ['O']['o'] }"]
98 -> 99 [label="{ ['U']['u'] }"]
98 -> 99 [label="{ ['R']['r'] }"]
98 -> 99 [label="{ ['A']['a'] }"]
98 -> 99 [label="{ ['T']['t'] }"]
98 -> 99 [label="{ ['D']['d'] }"]
98 -> 99 [label="{ ['S']['s'] }"]
98 -> 99 [label="{ ['E']['e'] }"]
98 -> 99 [label="{ ['M']['m'] }"]
98 -> 99 [label="{ ['B']['b'] }"]
98 -> 99 [label="{ ['V']['v'] }"]
98 -> 99 [label="{ ['H']['h'] }"]
98 -> 99 [label="{ ['L']['l'] }"]
98 -> 99 [label="{ ['Q']['q'] }"]
99 -> 98 [style=dotted]
99 -> 101 [style=dotted]
100 -> 98 [style=dotted]
100 -> 101 [style=dotted]
102 -> 103 [label="{ ['N']['n'] }"]
103 -> 104 [label="{ ['O']['o'] }"]
104 -> 105 [label="{ ['M']['m'] }"]
105 -> 106 [label="{ ['B']['b'] }"]
106 -> 107 [label="{ ['R']['r'] }"]
107 -> 108 [label="{ ['E']['e'] }"]
109 -> 110 [label="{ ['{'] }"]
111 -> 112 [label="{ ['}'] }"]
113 -> 114 [label="{ [','] }"]
115 -> 116 [label="{ [';'] }"]
117 -> 118 [label="{ ['='] }"]
119 -> 120 [label="{ [304-305] }"]
119 -> 120 [label="{ ['I']['i'] }"]
120 -> 121 [label="{ ['M']['m'] }"]
121 -> 122 [label="{ ['A']['a'] }"]
122 -> 123 [label="{ ['G']['g'] }"]
123 -> 124 [label="{ ['E']['e'] }"]
124 -> 125 [label="{ ['N']['n'] }"]
126 -> 127 [label="{ ['"'] }"]
127 -> 128 [style=dotted]
128 -> 129 [label="{ ['K']['W'-'Z']['k']['w'-'z'] }"]
128 -> 129 [label="{ ['J']['j'] }"]
128 -> 129 [label="{ ['P']['p'] }"]
128 -> 129 [label="{ ['G']['g'] }"]
128 -> 129 [label="{ ['N']['n'] }"]
128 -> 129 [label="{ ['I']['i'] }"]
128 -> 129 [label="{ ['F']['f'] }"]
128 -> 129 [label="{ ['C']['c'] }"]
128 -> 129 [label="{ ['O']['o'] }"]
128 -> 129 [label="{ ['U']['u'] }"]
128 -> 129 [label="{ ['R']['r'] }"]
128 -> 129 [label="{ ['A']['a'] }"]
128 -> 129 [label="{ ['T']['t'] }"]
128 -> 129 [label="{ ['D']['d'] }"]
128 -> 129 [label="{ ['S']['s'] }"]
128 -> 129 [label="{ ['E']['e'] }"]
128 -> 129 [label="{ ['M']['m'] }"]
128 -> 129 [label="{ ['B']['b'] }"]
128 -> 129 [label="{ ['V']['v'] }"]
128 -> 129 [label="{ ['H']['h'] }"]
128 -> 129 [label="{ ['L']['l'] }"]
128 -> 129 [label="{ ['Q']['q'] }"]
128 -> 131 [style=dotted]
129 -> 130 [style=dotted]
130 -> 131 [label="{ [':'] }"]
131 -> 140 [style=dotted]
132 -> 133 [label="{ ['/'] }"]
133 -> 134 [style=dotted]
134 -> 135 [label="{ [0-8][14-31]['!']['#'-')']['+']['-']['@']['['][']'-'^']['`']['~'-132][134-176][178-194][196-226][228-303][306-382][384-8231][8234-1114111] }"]
134 -> 135 [label="{ ['2'-'9'] }"]
134 -> 135 [label="{ ['K']['W'-'Z']['k']['w'-'z'] }"]
134 -> 135 [label="{ ['0'-'1'] }"]
134 -> 135 [label="{ ['_'] }"]
134 -> 135 [label="{ ['.'] }"]
134 -> 135 [label="{ ['J']['j'] }"]
134 -> 135 [label="{ ['P']['p'] }"]
134 -> 135 [label="{ ['G']['g'] }"]
134 -> 135 [label="{ ['N']['n'] }"]
134 -> 135 [label="{ [304-305] }"]
134 -> 135 [label="{ ['I']['i'] }"]
134 -> 135 [label="{ ['F']['f'] }"]
134 -> 135 [label="{ ['"'] }"]
134 -> 135 [label="{ ['C']['c'] }"]
134 -> 135 [label="{ ['O']['o'] }"]
134 -> 135 [label="{ ['U']['u'] }"]
134 -> 135 [label="{ ['R']['r'] }"]
134 -> 135 [label="{ ['A']['a'] }"]
134 -> 135 [label="{ ['T']['t'] }"]
134 -> 135 [label="{ ['D']['d'] }"]
134 -> 135 [label="{ [383] }"]
134 -> 135 [label="{ ['S']['s'] }"]
134 -> 135 [label="{ ['E']['e'] }"]
134 -> 135 [label="{ [195][227] }"]
134 -> 135 [label="{ [177] }"]
134 -> 135 [label="{ ['M']['m'] }"]
134 -> 135 [label="{ ['B']['b'] }"]
134 -> 135 [label="{ ['{'] }"]
134 -> 135 [label="{ ['}'] }"]
134 -> 135 [label="{ [','] }"]
134 -> 135 [label="{ [';'] }"]
134 -> 135 [label="{ ['='] }"]
134 -> 135 [label="{ ['V']['v'] }"]
134 -> 135 [label="{ ['H']['h'] }"]
134 -> 135 [label="{ ['L']['l'] }"]
134 -> 135 [label="{ ['Q']['q'] }"]
134 -> 135 [label="{ [13] }"]
134 -> 135 [label="{ [11] }"]
134 -> 135 [label="{ [12] }"]
134 -> 135 [label="{ [133] }"]
134 -> 135 [label="{ [8232] }"]
134 -> 135 [label="{ [8233] }"]
135 -> 138 [style=dotted]
136 -> 137 [label="{ [0-8][14-31]['!']['#'-')']['+']['-']['@']['['][']'-'^']['`']['~'-132][134-176][178-194][196-226][228-303][306-382][384-8231][8234-1114111] }"]
136 -> 137 [label="{ [' '] }"]
136 -> 137 [label="{ ['2'-'9'] }"]
136 -> 137 [label="{ ['K']['W'-'Z']['k']['w'-'z'] }"]
136 -> 137 [label="{ ['0'-'1'] }"]
136 -> 137 [label="{ ['_'] }"]
136 -> 137 [label="{ ['.'] }"]
136 -> 137 [label="{ ['J']['j'] }"]
136 -> 137 [label="{ ['P']['p'] }"]
136 -> 137 [label="{ ['G']['g'] }"]
136 -> 137 [label="{ ['N']['n'] }"]
136 -> 137 [label="{ [304-305] }"]
136 -> 137 [label="{ ['I']['i'] }"]
136 -> 137 [label="{ ['F']['f'] }"]
136 -> 137 [label="{ ['"'] }"]
136 -> 137 [label="{ ['C']['c'] }"]
136 -> 137 [label="{ ['O']['o'] }"]
136 -> 137 [label="{ ['U']['u'] }"]
136 -> 137 [label="{ ['R']['r'] }"]
136 -> 137 [label="{ ['A']['a'] }"]
136 -> 137 [label="{ ['T']['t'] }"]
136 -> 137 [label="{ ['D']['d'] }"]
136 -> 137 [label="{ [383] }"]
136 -> 137 [label="{ ['S']['s'] }"]
136 -> 137 [label="{ ['E']['e'] }"]
136 -> 137 [label="{ [195][227] }"]
136 -> 137 [label="{ [177] }"]
136 -> 137 [label="{ ['M']['m'] }"]
136 -> 137 [label="{ ['B']['b'] }"]
136 -> 137 [label="{ ['{'] }"]
136 -> 137 [label="{ ['}'] }"]
136 -> 137 [label="{ [','] }"]
136 -> 137 [label="{ [';'] }"]
136 -> 137 [label="{ ['='] }"]
136 -> 137 [label="{ ['V']['v'] }"]
136 -> 137 [label="{ ['H']['h'] }"]
136 -> 137 [label="{ ['L']['l'] }"]
136 -> 137 [label="{ ['Q']['q'] }"]
136 -> 137 [label="{ [13] }"]
136 -> 137 [label="{ [11] }"]
136 -> 137 [label="{ [12] }"]
136 -> 137 [label="{ [133] }"]
136 -> 137 [label="{ [8232] }"]
136 -> 137 [label="{ [8233] }"]
137 -> 136 [style=dotted]
137 -> 139 [style=dotted]
138 -> 136 [style=dotted]
138 -> 139 [style=dotted]
139 -> 132 [style=dotted]
139 -> 141 [style=dotted]
140 -> 132 [style=dotted]
140 -> 141 [style=dotted]
141 -> 142 [style=dotted]
142 -> 143 [label="{ ['/'] }"]
143 -> 144 [style=dotted]
144 -> 145 [label="{ ['K']['W'-'Z']['k']['w'-'z'] }"]
144 -> 145 [label="{ ['J']['j'] }"]
144 -> 145 [label="{ ['P']['p'] }"]
144 -> 145 [label="{ ['G']['g'] }"]
144 -> 145 [label="{ ['N']['n'] }"]
144 -> 145 [label="{ ['I']['i'] }"]
144 -> 145 [label="{ ['F']['f'] }"]
144 -> 145 [label="{ ['C']['c'] }"]
144 -> 145 [label="{ ['O']['o'] }"]
144 -> 145 [label="{ ['U']['u'] }"]
144 -> 145 [label="{ ['R']['r'] }"]
144 -> 145 [label="{ ['A']['a'] }"]
144 -> 145 [label="{ ['T']['t'] }"]
144 -> 145 [label="{ ['D']['d'] }"]
144 -> 145 [label="{ ['S']['s'] }"]
144 -> 145 [label="{ ['E']['e'] }"]
144 -> 145 [label="{ ['M']['m'] }"]
144 -> 145 [label="{ ['B']['b'] }"]
144 -> 145 [label="{ ['V']['v'] }"]
144 -> 145 [label="{ ['H']['h'] }"]
144 -> 145 [label="{ ['L']['l'] }"]
144 -> 145 [label="{ ['Q']['q'] }"]
145 -> 148 [style=dotted]
146 -> 147 [label="{ ['2'-'9'] }"]
146 -> 147 [label="{ ['K']['W'-'Z']['k']['w'-'z'] }"]
146 -> 147 [label="{ ['0'-'1'] }"]
146 -> 147 [label="{ ['_'] }"]
146 -> 147 [label="{ ['J']['j'] }"]
146 -> 147 [label="{ ['P']['p'] }"]
146 -> 147 [label="{ ['G']['g'] }"]
146 -> 147 [label="{ ['N']['n'] }"]
146 -> 147 [label="{ ['I']['i'] }"]
146 -> 147 [label="{ ['F']['f'] }"]
146 -> 147 [label="{ ['C']['c'] }"]
146 -> 147 [label="{ ['O']['o'] }"]
146 -> 147 [label="{ ['U']['u'] }"]
146 -> 147 [label="{ ['R']['r'] }"]
146 -> 147 [label="{ ['A']['a'] }"]
146 -> 147 [label="{ ['T']['t'] }"]
146 -> 147 [label="{ ['D']['d'] }"]
146 -> 147 [label="{ ['S']['s'] }"]
146 -> 147 [label="{ ['E']['e'] }"]
146 -> 147 [label="{ ['M']['m'] }"]
146 -> 147 [label="{ ['B']['b'] }"]
146 -> 147 [label="{ ['V']['v'] }"]
146 -> 147 [label="{ ['H']['h'] }"]
146 -> 147 [label="{ ['L']['l'] }"]
146 -> 147 [label="{ ['Q']['q'] }"]
147 -> 146 [style=dotted]
147 -> 149 [style=dotted]
148 -> 146 [style=dotted]
148 -> 149 [style=dotted]
149 -> 150 [style=dotted]
150 -> 151 [label="{ ['.'] }"]
151 -> 166 [style=dotted]
152 -> 153 [label="{ ['J']['j'] }"]
153 -> 154 [label="{ ['P']['p'] }"]
154 -> 155 [label="{ ['G']['g'] }"]
155 -> 161 [style=dotted]
156 -> 157 [label="{ ['P']['p'] }"]
157 -> 158 [label="{ ['N']['n'] }"]
158 -> 159 [label="{ ['G']['g'] }"]
159 -> 161 [style=dotted]
160 -> 152 [style=dotted]
160 -> 156 [style=dotted]
161 -> 167 [style=dotted]
162 -> 163 [label="{ ['G']['g'] }"]
163 -> 164 [label="{ [304-305] }"]
163 -> 164 [label="{ ['I']['i'] }"]
164 -> 165 [label="{ ['F']['f'] }"]
165 -> 167 [style=dotted]
166 -> 160 [style=dotted]
166 -> 162 [style=dotted]
167 -> 168 [style=dotted]
168 -> 169 [label="{ ['"'] }"]
170 -> 171 [label="{ ['V']['v'] }"]
171 -> 172 [label="{ [304-305] }"]
171 -> 172 [label="{ ['I']['i'] }"]
172 -> 173 [label="{ ['D']['d'] }"]
173 -> 174 [label="{ ['A']['a'] }"]
175 -> 176 [label="{ ['0'-'1'] }"]
177 -> 178 [label="{ ['T']['t'] }"]
178 -> 179 [label="{ [304-305] }"]
178 -> 179 [label="{ ['I']['i'] }"]
179 -> 180 [label="{ ['P']['p'] }"]
180 -> 181 [label="{ ['O']['o'] }"]
182 -> 183 [label="{ ['H']['h'] }"]
183 -> 184 [label="{ ['E']['e'] }"]
184 -> 185 [label="{ ['R']['r'] }"]
185 -> 186 [label="{ ['O']['o'] }"]
186 -> 187 [label="{ ['E']['e'] }"]
188 -> 189 [label="{ ['E']['e'] }"]
189 -> 190 [label="{ ['N']['n'] }"]
190 -> 191 [label="{ ['E']['e'] }"]
191 -> 192 [label="{ ['M']['m'] }"]
192 -> 193 [label="{ [304-305] }"]
192 -> 193 [label="{ ['I']['i'] }"]
193 -> 194 [label="{ ['G']['g'] }"]
194 -> 195 [label="{ ['O']['o'] }"]
196 -> 197 [label="{ ['D']['d'] }"]
197 -> 198 [label="{ ['E']['e'] }"]
198 -> 199 [label="{ [383] }"]
198 -> 199 [label="{ ['S']['s'] }"]
199 -> 200 [label="{ ['T']['t'] }"]
200 -> 201 [label="{ ['R']['r'] }"]
201 -> 202 [label="{ ['U']['u'] }"]
202 -> 203 [label="{ [304-305] }"]
202 -> 203 [label="{ ['I']['i'] }"]
203 -> 204 [label="{ ['R']['r'] }"]
205 -> 206 [label="{ ['D']['d'] }"]
206 -> 207 [label="{ ['E']['e'] }"]
207 -> 208 [label="{ [383] }"]
207 -> 208 [label="{ ['S']['s'] }"]
208 -> 209 [label="{ ['C']['c'] }"]
209 -> 210 [label="{ ['R']['r'] }"]
210 -> 211 [label="{ [304-305] }"]
210 -> 211 [label="{ ['I']['i'] }"]
211 -> 212 [label="{ ['P']['p'] }"]
212 -> 213 [label="{ ['C']['c'] }"]
213 -> 214 [label="{ [304-305] }"]
213 -> 214 [label="{ ['I']['i'] }"]
214 -> 215 [label="{ ['O']['o'] }"]
215 -> 216 [label="{ ['N']['n'] }"]
217 -> 218 [label="{ ['"'] }"]
218 -> 221 [style=dotted]
219 -> 220 [label="{ [0-8][14-31]['!']['#'-')']['+']['-']['@']['['][']'-'^']['`']['~'-132][134-176][178-194][196-226][228-303][306-382][384-8231][8234-1114111] }"]
219 -> 220 [label="{ [' '] }"]
219 -> 220 [label="{ [10] }"]
219 -> 220 [label="{ ['2'-'9'] }"]
219 -> 220 [label="{ ['K']['W'-'Z']['k']['w'-'z'] }"]
219 -> 220 [label="{ ['0'-'1'] }"]
219 -> 220 [label="{ ['_'] }"]
219 -> 220 [label="{ ['*']['?']['\']['|'] }"]
219 -> 220 [label="{ [9] }"]
219 -> 220 [label="{ ['.'] }"]
219 -> 220 [label="{ ['J']['j'] }"]
219 -> 220 [label="{ ['P']['p'] }"]
219 -> 220 [label="{ ['G']['g'] }"]
219 -> 220 [label="{ ['N']['n'] }"]
219 -> 220 [label="{ [304-305] }"]
219 -> 220 [label="{ ['I']['i'] }"]
219 -> 220 [label="{ ['F']['f'] }"]
219 -> 220 [label="{ [':'] }"]
219 -> 220 [label="{ ['/'] }"]
219 -> 220 [label="{ ['<'] }"]
219 -> 220 [label="{ ['C']['c'] }"]
219 -> 220 [label="{ ['O']['o'] }"]
219 -> 220 [label="{ ['U']['u'] }"]
219 -> 220 [label="{ ['R']['r'] }"]
219 -> 220 [label="{ ['A']['a'] }"]
219 -> 220 [label="{ ['T']['t'] }"]
219 -> 220 [label="{ ['>'] }"]
219 -> 220 [label="{ ['D']['d'] }"]
219 -> 220 [label="{ [383] }"]
219 -> 220 [label="{ ['S']['s'] }"]
219 -> 220 [label="{ ['E']['e'] }"]
219 -> 220 [label="{ [195][227] }"]
219 -> 220 [label="{ [177] }"]
219 -> 220 [label="{ ['M']['m'] }"]
219 -> 220 [label="{ ['B']['b'] }"]
219 -> 220 [label="{ ['{'] }"]
219 -> 220 [label="{ ['}'] }"]
219 -> 220 [label="{ [','] }"]
219 -> 220 [label="{ [';'] }"]
219 -> 220 [label="{ ['='] }"]
219 -> 220 [label="{ ['V']['v'] }"]
219 -> 220 [label="{ ['H']['h'] }"]
219 -> 220 [label="{ ['L']['l'] }"]
219 -> 220 [label="{ ['Q']['q'] }"]
219 -> 220 [label="{ [13] }"]
219 -> 220 [label="{ [11] }"]
219 -> 220 [label="{ [12] }"]
219 -> 220 [label="{ [133] }"]
219 -> 220 [label="{ [8232] }"]
219 -> 220 [label="{ [8233] }"]
220 -> 219 [style=dotted]
220 -> 222 [style=dotted]
221 -> 219 [style=dotted]
221 -> 222 [style=dotted]
222 -> 223 [style=dotted]
223 -> 224 [label="{ ['"'] }"]
225 -> 226 [label="{ ['M']['m'] }"]
226 -> 227 [label="{ ['E']['e'] }"]
227 -> 228 [label="{ ['T']['t'] }"]
228 -> 229 [label="{ ['A']['a'] }"]
230 -> 231 [label="{ ['B']['b'] }"]
231 -> 232 [label="{ ['L']['l'] }"]
232 -> 233 [label="{ ['O']['o'] }"]
233 -> 234 [label="{ ['Q']['q'] }"]
234 -> 235 [label="{ ['U']['u'] }"]
235 -> 236 [label="{ ['E']['e'] }"]
237 -> 238 [label="{ ['B']['b'] }"]
238 -> 239 [label="{ ['O']['o'] }"]
239 -> 240 [label="{ ['N']['n'] }"]
240 -> 241 [label="{ ['U']['u'] }"]
241 -> 242 [label="{ [383] }"]
241 -> 242 [label="{ ['S']['s'] }"]
243 -> 244 [label="{ ['B']['b'] }"]
244 -> 245 [label="{ ['O']['o'] }"]
245 -> 246 [label="{ ['M']['m'] }"]
246 -> 247 [label="{ ['B']['b'] }"]
247 -> 248 [label="{ ['A']['a'] }"]
249 -> 250 [label="{ ['A']['a'] }"]
250 -> 251 [label="{ ['R']['r'] }"]
251 -> 252 [label="{ ['M']['m'] }"]
252 -> 253 [label="{ ['A']['a'] }"]
254 -> 255 [label="{ ['C']['c'] }"]
255 -> 256 [label="{ ['R']['r'] }"]
256 -> 257 [label="{ ['E']['e'] }"]
257 -> 258 [label="{ ['D']['d'] }"]
258 -> 259 [label="{ [304-305] }"]
258 -> 259 [label="{ ['I']['i'] }"]
259 -> 260 [label="{ ['T']['t'] }"]
260 -> 261 [label="{ ['O']['o'] }"]
261 -> 262 [label="{ [383] }"]
261 -> 262 [label="{ ['S']['s'] }"]
263 -> 264 [label="{ [0-8][14-31]['!']['#'-')']['+']['-']['@']['['][']'-'^']['`']['~'-132][134-176][178-194][196-226][228-303][306-382][384-8231][8234-1114111] }"]
263 -> 264 [label="{ [' '] }"]
263 -> 264 [label="{ ['2'-'9'] }"]
263 -> 264 [label="{ ['K']['W'-'Z']['k']['w'-'z'] }"]
263 -> 264 [label="{ ['0'-'1'] }"]
263 -> 264 [label="{ ['_'] }"]
263 -> 264 [label="{ ['*']['?']['\']['|'] }"]
263 -> 264 [label="{ [9] }"]
263 -> 264 [label="{ ['.'] }"]
263 -> 264 [label="{ ['J']['j'] }"]
263 -> 264 [label="{ ['P']['p'] }"]
263 -> 264 [label="{ ['G']['g'] }"]
263 -> 264 [label="{ ['N']['n'] }"]
263 -> 264 [label="{ [304-305] }"]
263 -> 264 [label="{ ['I']['i'] }"]
263 -> 264 [label="{ ['F']['f'] }"]
263 -> 264 [label="{ ['"'] }"]
263 -> 264 [label="{ [':'] }"]
263 -> 264 [label="{ ['/'] }"]
263 -> 264 [label="{ ['<'] }"]
263 -> 264 [label="{ ['C']['c'] }"]
263 -> 264 [label="{ ['O']['o'] }"]
263 -> 264 [label="{ ['U']['u'] }"]
263 -> 264 [label="{ ['R']['r'] }"]
263 -> 264 [label="{ ['A']['a'] }"]
263 -> 264 [label="{ ['T']['t'] }"]
263 -> 264 [label="{ ['>'] }"]
263 -> 264 [label="{ ['D']['d'] }"]
263 -> 264 [label="{ [383] }"]
263 -> 264 [label="{ ['S']['s'] }"]
263 -> 264 [label="{ ['E']['e'] }"]
263 -> 264 [label="{ [195][227] }"]
263 -> 264 [label="{ [177] }"]
263 -> 264 [label="{ ['M']['m'] }"]
263 -> 264 [label="{ ['B']['b'] }"]
263 -> 264 [label="{ ['{'] }"]
263 -> 264 [label="{ ['}'] }"]
263 -> 264 [label="{ [','] }"]
263 -> 264 [label="{ [';'] }"]
263 -> 264 [label="{ ['='] }"]
263 -> 264 [label="{ ['V']['v'] }"]
263 -> 264 [label="{ ['H']['h'] }"]
263 -> 264 [label="{ ['L']['l'] }"]
263 -> 264 [label="{ ['Q']['q'] }"]
}

